lab04/src/riscvmulti.vcd
$date
	Fri May 20 00:33:42 2022
$end
$version
	Icarus Verilog
$end
$timescale
	1s
$end
$scope module testbench $end
$var wire 32 ! WriteData [31:0] $end
$var wire 1 " MemWrite $end
$var wire 32 # DataAdr [31:0] $end
$var reg 1 $ clk $end
$var reg 32 % hash [31:0] $end
$var reg 1 & reset $end
$scope module dut $end
$var wire 1 $ clk $end
$var wire 1 & reset $end
$var wire 32 ' WriteData [31:0] $end
$var wire 32 ( ReadData [31:0] $end
$var wire 1 " MemWrite $end
$var wire 32 ) DataAdr [31:0] $end
$scope module mem $end
$var wire 1 $ clk $end
$var wire 32 * rd [31:0] $end
$var wire 1 " we $end
$var wire 32 + wd [31:0] $end
$var wire 32 , a [31:0] $end
$upscope $end
$scope module rvmulti $end
$var wire 32 - ReadData [31:0] $end
$var wire 1 $ clk $end
$var wire 1 & reset $end
$var wire 1 . Zero $end
$var wire 32 / WriteData [31:0] $end
$var wire 2 0 ResultSrc [1:0] $end
$var wire 1 1 RegWrite $end
$var wire 1 2 PCWrite $end
$var wire 1 " MemWrite $end
$var wire 32 3 Instr [31:0] $end
$var wire 2 4 ImmSrc [1:0] $end
$var wire 1 5 IRWrite $end
$var wire 1 6 AdrSrc $end
$var wire 32 7 Adr [31:0] $end
$var wire 2 8 ALUSrcB [1:0] $end
$var wire 2 9 ALUSrcA [1:0] $end
$var wire 3 : ALUControl [2:0] $end
$scope module c $end
$var wire 1 2 PCWrite $end
$var wire 1 $ clk $end
$var wire 3 ; funct3 [2:0] $end
$var wire 1 < funct7b5 $end
$var wire 7 = op [6:0] $end
$var wire 1 & reset $end
$var wire 1 . Zero $end
$var wire 3 > ALUControl [2:0] $end
$var reg 2 ? ALUOp [1:0] $end
$var reg 2 @ ALUSrcA [1:0] $end
$var reg 2 A ALUSrcB [1:0] $end
$var reg 1 6 AdrSrc $end
$var reg 1 B Branch $end
$var reg 1 5 IRWrite $end
$var reg 2 C ImmSrc [1:0] $end
$var reg 1 " MemWrite $end
$var reg 1 D PCUpdate $end
$var reg 1 1 RegWrite $end
$var reg 2 E ResultSrc [1:0] $end
$var reg 4 F next_state [3:0] $end
$var reg 4 G state [3:0] $end
$scope module alud $end
$var wire 2 H ALUOp [1:0] $end
$var wire 1 I RtypeSub $end
$var wire 3 J funct3 [2:0] $end
$var wire 1 < funct7b5 $end
$var wire 1 K opb5 $end
$var reg 3 L ALUControl [2:0] $end
$upscope $end
$upscope $end
$scope module dp $end
$var wire 3 M ALUControl [2:0] $end
$var wire 2 N ALUSrcA [1:0] $end
$var wire 2 O ALUSrcB [1:0] $end
$var wire 1 6 AdrSrc $end
$var wire 1 5 IRWrite $end
$var wire 2 P ImmSrc [1:0] $end
$var wire 1 " MemWrite $end
$var wire 1 2 PCWrite $end
$var wire 32 Q ReadData [31:0] $end
$var wire 1 1 RegWrite $end
$var wire 2 R ResultSrc [1:0] $end
$var wire 1 $ clk $end
$var wire 1 & reset $end
$var wire 32 S rd2 [31:0] $end
$var wire 32 T rd1 [31:0] $end
$var wire 1 . Zero $end
$var wire 32 U WriteData [31:0] $end
$var wire 32 V SrcB [31:0] $end
$var wire 32 W SrcA [31:0] $end
$var wire 32 X Result [31:0] $end
$var wire 32 Y PC [31:0] $end
$var wire 32 Z OldPC [31:0] $end
$var wire 32 [ Instr [31:0] $end
$var wire 32 \ ImmExt [31:0] $end
$var wire 32 ] Data [31:0] $end
$var wire 32 ^ Adr [31:0] $end
$var wire 32 _ ALUResult [31:0] $end
$var wire 32 ` ALUOut [31:0] $end
$var wire 32 a A [31:0] $end
$scope module adrmux $end
$var wire 1 6 s $end
$var wire 32 b y [31:0] $end
$var wire 32 c d1 [31:0] $end
$var wire 32 d d0 [31:0] $end
$upscope $end
$scope module alu $end
$var wire 3 e alucontrol [2:0] $end
$var wire 1 f isAddSub $end
$var wire 1 g v $end
$var wire 1 . zero $end
$var wire 1 h sum31 $end
$var wire 32 i sum [31:0] $end
$var wire 32 j condinvb [31:0] $end
$var wire 1 k b40 $end
$var wire 32 l b [31:0] $end
$var wire 32 m a [31:0] $end
$var reg 32 n result [31:0] $end
$upscope $end
$scope module alureg $end
$var wire 1 $ clk $end
$var wire 32 o d [31:0] $end
$var wire 1 & reset $end
$var reg 32 p q [31:0] $end
$upscope $end
$scope module ext $end
$var wire 2 q immsrc [1:0] $end
$var wire 25 r instr [31:7] $end
$var wire 1 s instr7 $end
$var wire 7 t instr31_25 [31:25] $end
$var wire 12 u instr31_20 [31:20] $end
$var wire 1 v instr31 $end
$var wire 6 w instr30_25 [30:25] $end
$var wire 10 x instr30_21 [30:21] $end
$var wire 1 y instr20 $end
$var wire 8 z instr19_12 [19:12] $end
$var wire 4 { instr11_8 [11:8] $end
$var wire 5 | instr11_7 [11:7] $end
$var reg 32 } immext [31:0] $end
$upscope $end
$scope module instrreg $end
$var wire 1 $ clk $end
$var wire 32 ~ d [31:0] $end
$var wire 1 5 enabled $end
$var wire 1 & reset $end
$var reg 32 !" q [31:0] $end
$upscope $end
$scope module oldpcreg $end
$var wire 1 $ clk $end
$var wire 1 5 enabled $end
$var wire 1 & reset $end
$var wire 32 "" d [31:0] $end
$var reg 32 #" q [31:0] $end
$upscope $end
$scope module pcreg $end
$var wire 1 $ clk $end
$var wire 1 2 enabled $end
$var wire 1 & reset $end
$var wire 32 $" d [31:0] $end
$var reg 32 %" q [31:0] $end
$upscope $end
$scope module rd1reg $end
$var wire 1 $ clk $end
$var wire 1 & reset $end
$var wire 32 &" d [31:0] $end
$var reg 32 '" q [31:0] $end
$upscope $end
$scope module rd2reg $end
$var wire 1 $ clk $end
$var wire 1 & reset $end
$var wire 32 (" d [31:0] $end
$var reg 32 )" q [31:0] $end
$upscope $end
$scope module readdatareg $end
$var wire 1 $ clk $end
$var wire 32 *" d [31:0] $end
$var wire 1 & reset $end
$var reg 32 +" q [31:0] $end
$upscope $end
$scope module resultmux $end
$var wire 32 ," d0 [31:0] $end
$var wire 32 -" d1 [31:0] $end
$var wire 32 ." d2 [31:0] $end
$var wire 2 /" s [1:0] $end
$var wire 32 0" y [31:0] $end
$upscope $end
$scope module rf $end
$var wire 5 1" a1 [4:0] $end
$var wire 5 2" a2 [4:0] $end
$var wire 5 3" a3 [4:0] $end
$var wire 1 $ clk $end
$var wire 32 4" wd3 [31:0] $end
$var wire 1 1 we3 $end
$var wire 32 5" rd2 [31:0] $end
$var wire 32 6" rd1 [31:0] $end
$upscope $end
$scope module srcamux $end
$var wire 32 7" d0 [31:0] $end
$var wire 32 8" d1 [31:0] $end
$var wire 32 9" d2 [31:0] $end
$var wire 2 :" s [1:0] $end
$var wire 32 ;" y [31:0] $end
$upscope $end
$scope module srcbmux $end
$var wire 32 <" d0 [31:0] $end
$var wire 32 =" d1 [31:0] $end
$var wire 32 >" d2 [31:0] $end
$var wire 2 ?" s [1:0] $end
$var wire 32 @" y [31:0] $end
$upscope $end
$upscope $end
$upscope $end
$upscope $end
$upscope $end
$enddefinitions $end
#0
$dumpvars
bx @"
bx ?"
b100 >"
bx ="
b0 <"
b0 ;"
bx :"
b0 9"
b0 8"
b0 7"
b0 6"
b0 5"
bx 4"
b0 3"
b0 2"
b0 1"
bx 0"
bx /"
bx ."
b0 -"
b0 ,"
b0 +"
b10100000000000100010011 *"
b0 )"
b0 ("
b0 '"
b0 &"
b0 %"
bx $"
b0 #"
b0 ""
b0 !"
b10100000000000100010011 ~
bx }
b0 |
b0 {
b0 z
0y
b0 x
b0 w
0v
b0 u
b0 t
0s
b0 r
bx q
b0 p
bx o
bx n
b0 m
bx l
xk
bx j
bx i
xh
xg
1f
b0 e
b0 d
bx c
b0 b
b0 a
b0 `
bx _
b0 ^
b0 ]
bx \
b0 [
b0 Z
b0 Y
bx X
b0 W
bx V
b0 U
b0 T
b0 S
bx R
b10100000000000100010011 Q
bx P
bx O
bx N
b0 M
b0 L
0K
b0 J
0I
bx H
bx G
b0 F
bx E
0D
bx C
0B
bx A
bx @
bx ?
b0 >
b0 =
0<
b0 ;
b0 :
bx 9
bx 8
b0 7
06
05
bx 4
b0 3
02
01
bx 0
b0 /
x.
b10100000000000100010011 -
b0 ,
b0 +
b10100000000000100010011 *
b0 )
b10100000000000100010011 (
b0 '
1&
b0 %
1$
b0 #
0"
b0 !
$end
#5
0$
#10
1$
#15
0$
#20
1$
#22
0&
#25
0$
#30
0g
b100 X
b100 c
b100 $"
b100 0"
b100 4"
0k
0h
0.
b100 _
b100 n
b100 o
b100 ."
b100 i
b100 j
b100 V
b100 l
b100 @"
12
1D
b10 0
b10 E
b10 R
b10 /"
b0 ?
b0 H
b10 8
b10 A
b10 O
b10 ?"
b0 9
b0 @
b0 N
b0 :"
15
b1 F
b0 G
bx `
bx p
bx ,"
b10100000000000100010011 ]
b10100000000000100010011 +"
b10100000000000100010011 -"
1$
#35
0$
#40
1k
b101 j
b101 X
b101 c
b101 $"
b101 0"
b101 4"
b101 V
b101 l
b101 @"
b101 _
b101 n
b101 o
b101 ."
b101 \
b101 }
b101 ="
02
1y
b101 u
b10 |
b1 {
b10 x
bx S
bx ("
bx 5"
b101 i
b0 W
b0 m
b0 ;"
b110000000000000110010011 (
b110000000000000110010011 *
b110000000000000110010011 -
b110000000000000110010011 Q
b110000000000000110010011 ~
b110000000000000110010011 *"
b0 4
b0 C
b0 P
b0 q
b1 8
b1 A
b1 O
b1 ?"
b1 9
b1 @
b1 N
b1 :"
0D
05
b1000 F
b1010000000000010 r
b10 3"
b101 2"
b10011 =
b100 #
b100 )
b100 ,
b100 7
b100 ^
b100 b
b1 G
b10100000000000100010011 3
b10100000000000100010011 [
b10100000000000100010011 !"
b100 `
b100 p
b100 ,"
b100 Y
b100 d
b100 ""
b100 %"
b100 7"
1$
#45
b101000000000001000101110 %
0$
#50
b10 ?
b10 H
b10 9
b10 @
b10 N
b10 :"
b111 F
b1000 G
b101 `
b101 p
b101 ,"
b110000000000000110010011 ]
b110000000000000110010011 +"
b110000000000000110010011 -"
bx !
bx '
bx +
bx /
bx U
bx )"
bx <"
1$
#55
b1111000000000011001110011 %
0$
#60
11
b0 0
b0 E
b0 R
b0 /"
b0 F
b111 G
1$
#65
b11011000000000111011001001 %
0$
#70
0k
b1000 X
b1000 c
b1000 $"
b1000 0"
b1000 4"
b100 j
b1000 _
b1000 n
b1000 o
b1000 ."
b100 V
b100 l
b100 @"
b1000 i
b100 W
b100 m
b100 ;"
12
1D
b10 0
b10 E
b10 R
b10 /"
b0 ?
b0 H
b10 8
b10 A
b10 O
b10 ?"
b0 9
b0 @
b0 N
b0 :"
15
01
b1 F
b0 G
1$
#75
b110011000000001111110111101 %
0$
#80
b1100 j
b10000 X
b10000 c
b10000 $"
b10000 0"
b10000 4"
b1100 V
b1100 l
b1100 @"
b1100 \
b1100 }
b1100 ="
b10000 _
b10000 n
b10000 o
b10000 ."
02
1s
0y
b1100 u
b11 |
b110 x
b10000 i
b100 W
b100 m
b100 ;"
b11111111011100011000001110010011 (
b11111111011100011000001110010011 *
b11111111011100011000001110010011 -
b11111111011100011000001110010011 Q
b11111111011100011000001110010011 ~
b11111111011100011000001110010011 *"
b1 8
b1 A
b1 O
b1 ?"
b1 9
b1 @
b1 N
b1 :"
0D
05
b1000 F
b11000000000000011 r
b11 3"
b1100 2"
b1000 #
b1000 )
b1000 ,
b1000 7
b1000 ^
b1000 b
b1 G
b100 Z
b100 #"
b100 8"
b110000000000000110010011 3
b110000000000000110010011 [
b110000000000000110010011 !"
b1000 `
b1000 p
b1000 ,"
b1000 Y
b1000 d
b1000 ""
b1000 %"
b1000 7"
1$
#85
b1101010000000011110001001101 %
0$
#90
b1100 X
b1100 c
b1100 $"
b1100 0"
b1100 4"
b1100 _
b1100 n
b1100 o
b1100 ."
b1100 i
b0 W
b0 m
b0 ;"
b10 ?
b10 H
b10 9
b10 @
b10 N
b10 :"
b111 F
b1000 G
b10000 `
b10000 p
b10000 ,"
b11111111011100011000001110010011 ]
b11111111011100011000001110010011 +"
b11111111011100011000001110010011 -"
1$
#95
b11011000000000111101110101100 %
0$
#100
11
b0 0
b0 E
b0 R
b0 /"
b0 F
b111 G
b1100 `
b1100 p
b1100 ,"
1$
#105
b110111100000001111010001101111 %
0$
#110
b1100 X
b1100 c
b1100 $"
b1100 0"
b1100 4"
b100 j
b1100 _
b1100 n
b1100 o
b1100 ."
b100 V
b100 l
b100 @"
b1100 i
b1000 W
b1000 m
b1000 ;"
12
1D
b10 0
b10 E
b10 R
b10 /"
b0 ?
b0 H
b10 8
b10 A
b10 O
b10 ?"
b0 9
b0 @
b0 N
b0 :"
15
01
b1 F
b0 G
1$
#115
b1101110100000011110101111101001 %
0$
#120
1k
1h
b11111111111111111111111111110111 j
b11111111111111111111111111111111 X
b11111111111111111111111111111111 c
b11111111111111111111111111111111 $"
b11111111111111111111111111111111 0"
b11111111111111111111111111111111 4"
b11111111111111111111111111110111 V
b11111111111111111111111111110111 l
b11111111111111111111111111110111 @"
b11111111111111111111111111110111 \
b11111111111111111111111111110111 }
b11111111111111111111111111110111 ="
b11111111111111111111111111111111 _
b11111111111111111111111111111111 n
b11111111111111111111111111111111 o
b11111111111111111111111111111111 ."
02
1v
1y
b111111110111 u
b1111111 t
b111 |
b111111 w
b11 {
b11000 z
b1111111011 x
b1100 T
b1100 &"
b1100 6"
b11111111111111111111111111111111 i
b1000 W
b1000 m
b1000 ;"
b1000111110001000110011 (
b1000111110001000110011 *
b1000111110001000110011 -
b1000111110001000110011 Q
b1000111110001000110011 ~
b1000111110001000110011 *"
b1 8
b1 A
b1 O
b1 ?"
b1 9
b1 @
b1 N
b1 :"
0D
05
b1000 F
b1111111101110001100000111 r
b111 3"
b10111 2"
b11 1"
1<
b1100 #
b1100 )
b1100 ,
b1100 7
b1100 ^
b1100 b
b1 G
b1000 Z
b1000 #"
b1000 8"
b11111111011100011000001110010011 3
b11111111011100011000001110010011 [
b11111111011100011000001110010011 !"
b1100 Y
b1100 d
b1100 ""
b1100 %"
b1100 7"
1$
#125
b100011111000001101000011101101 %
0$
#130
b11 X
b11 c
b11 $"
b11 0"
b11 4"
0h
b11 _
b11 n
b11 o
b11 ."
b11 i
b1100 W
b1100 m
b1100 ;"
b10 ?
b10 H
b10 9
b10 @
b10 N
b10 :"
b111 F
b1000 G
b11111111111111111111111111111111 `
b11111111111111111111111111111111 p
b11111111111111111111111111111111 ,"
b1000111110001000110011 ]
b1000111110001000110011 +"
b1000111110001000110011 -"
b1100 a
b1100 '"
b1100 9"
1$
#135
b10111001001000101010011011100101 %
0$
#140
11
b0 0
b0 E
b0 R
b0 /"
b0 F
b111 G
b11 `
b11 p
b11 ,"
1$
#145
b10001100101001100100101011110101 %
0$
#150
b10000 X
b10000 c
b10000 $"
b10000 0"
b10000 4"
0k
b10000 _
b10000 n
b10000 o
b10000 ."
b10000 i
b100 j
b100 V
b100 l
b100 @"
12
1D
b10 0
b10 E
b10 R
b10 /"
b0 ?
b0 H
b10 8
b10 A
b10 O
b10 ?"
b0 9
b0 @
b0 N
b0 :"
15
01
b1 F
b0 G
1$
#155
b11100111101011111001001011010100 %
0$
#160
xg
xk
xh
x.
bx j
bx X
bx c
bx $"
bx 0"
bx 4"
bx V
bx l
bx @"
bx _
bx n
bx o
bx ."
bx \
bx }
bx ="
02
0v
0s
0y
b10 u
b0 t
b100 |
b0 w
b10 {
b111110 z
b1 x
b101 S
b101 ("
b101 5"
b11 T
b11 &"
b11 6"
1K
bx i
b1100 W
b1100 m
b1100 ;"
b10000011111001010110011 (
b10000011111001010110011 *
b10000011111001010110011 -
b10000011111001010110011 Q
b10000011111001010110011 ~
b10000011111001010110011 *"
bx 4
bx C
bx P
bx q
b1 8
b1 A
b1 O
b1 ?"
b1 9
b1 @
b1 N
b1 :"
0D
05
b110 F
b100011111000100 r
b100 3"
b10 2"
b111 1"
0<
b110 ;
b110 J
b110011 =
b10000 #
b10000 )
b10000 ,
b10000 7
b10000 ^
b10000 b
b1 G
b1100 Z
b1100 #"
b1100 8"
b1000111110001000110011 3
b1000111110001000110011 [
b1000111110001000110011 !"
b10000 `
b10000 p
b10000 ,"
b10000 Y
b10000 d
b10000 ""
b10000 %"
b10000 7"
1$
#165
b11001111000110001110000111101111 %
0$
#170
0g
1h
0f
1k
b11111111111111111111111111111110 i
b11111111111111111111111111111010 j
b111 X
b111 c
b111 $"
b111 0"
b111 4"
b101 V
b101 l
b101 @"
0.
b111 _
b111 n
b111 o
b111 ."
b11 W
b11 m
b11 ;"
b11 :
b11 >
b11 L
b11 M
b11 e
b10 ?
b10 H
b0 8
b0 A
b0 O
b0 ?"
b10 9
b10 @
b10 N
b10 :"
b111 F
b110 G
bx `
bx p
bx ,"
b10000011111001010110011 ]
b10000011111001010110011 +"
b10000011111001010110011 -"
b101 !
b101 '
b101 +
b101 /
b101 U
b101 )"
b101 <"
b11 a
b11 '"
b11 9"
1$
#175
b10011110011101100000011110011001 %
0$
#180
11
b0 0
b0 E
b0 R
b0 /"
b0 F
b111 G
b111 `
b111 p
b111 ,"
1$
#185
b111100101010111100101101110101 %
0$
#190
1f
0k
b100 j
0h
b10100 X
b10100 c
b10100 $"
b10100 0"
b10100 4"
b10100 _
b10100 n
b10100 o
b10100 ."
b100 V
b100 l
b100 @"
b10100 i
b10000 W
b10000 m
b10000 ;"
12
b0 :
b0 >
b0 L
b0 M
b0 e
1D
b10 0
b10 E
b10 R
b10 /"
b0 ?
b0 H
b10 8
b10 A
b10 O
b10 ?"
b0 9
b0 @
b0 N
b0 :"
15
01
b1 F
b0 G
1$
#195
b1111001000100000101001010101101 %
0$
#200
xg
xk
xh
x.
bx j
bx X
bx c
bx $"
bx 0"
bx 4"
bx V
bx l
bx @"
bx _
bx n
bx o
bx ."
02
1s
b100 u
b101 |
b11111 z
b10 x
b111 S
b111 ("
b111 5"
b1100 T
b1100 &"
b1100 6"
bx i
b10000 W
b10000 m
b10000 ;"
b10000101000001010110011 (
b10000101000001010110011 *
b10000101000001010110011 -
b10000101000001010110011 Q
b10000101000001010110011 ~
b10000101000001010110011 *"
b1 8
b1 A
b1 O
b1 ?"
b1 9
b1 @
b1 N
b1 :"
0D
05
b110 F
b1000001111100101 r
b101 3"
b100 2"
b11 1"
b111 ;
b111 J
b10100 #
b10100 )
b10100 ,
b10100 7
b10100 ^
b10100 b
b1 G
b10000 Z
b10000 #"
b10000 8"
b10000011111001010110011 3
b10000011111001010110011 [
b10000011111001010110011 !"
b10100 `
b10100 p
b10100 ,"
b10100 Y
b10100 d
b10100 ""
b10100 %"
b10100 7"
1$
#205
b11110010101000110100000000010100 %
0$
#210
0g
0f
1k
0h
b10011 i
b111 j
0.
b100 X
b100 c
b100 $"
b100 0"
b100 4"
b111 V
b111 l
b111 @"
b100 _
b100 n
b100 o
b100 ."
b1100 W
b1100 m
b1100 ;"
b10 :
b10 >
b10 L
b10 M
b10 e
b10 ?
b10 H
b0 8
b0 A
b0 O
b0 ?"
b10 9
b10 @
b10 N
b10 :"
b111 F
b110 G
bx `
bx p
bx ,"
b10000101000001010110011 ]
b10000101000001010110011 +"
b10000101000001010110011 -"
b111 !
b111 '
b111 +
b111 /
b111 U
b111 )"
b111 <"
b1100 a
b1100 '"
b1100 9"
1$
#215
b11100101110001010110010101100110 %
0$
#220
11
b0 0
b0 E
b0 R
b0 /"
b0 F
b111 G
b100 `
b100 p
b100 ,"
1$
#225
b11001011000010010010111110000010 %
0$
#230
1f
0k
b100 j
b11000 X
b11000 c
b11000 $"
b11000 0"
b11000 4"
b11000 _
b11000 n
b11000 o
b11000 ."
b100 V
b100 l
b100 @"
b11000 i
b10100 W
b10100 m
b10100 ;"
12
b0 :
b0 >
b0 L
b0 M
b0 e
1D
b10 0
b10 E
b10 R
b10 /"
b0 ?
b0 H
b10 8
b10 A
b10 O
b10 ?"
b0 9
b0 @
b0 N
b0 :"
15
01
b1 F
b0 G
1$
#235
b10010110100100011011101001001010 %
0$
#240
xg
xk
xh
x.
bx j
bx X
bx c
bx $"
bx 0"
bx 4"
bx V
bx l
bx @"
bx _
bx n
bx o
bx ."
02
b101000 z
b100 T
b100 &"
b100 6"
bx i
b10100 W
b10100 m
b10100 ;"
b10011100101000100001100011 (
b10011100101000100001100011 *
b10011100101000100001100011 -
b10011100101000100001100011 Q
b10011100101000100001100011 ~
b10011100101000100001100011 *"
b1 8
b1 A
b1 O
b1 ?"
b1 9
b1 @
b1 N
b1 :"
0D
05
b110 F
b1000010100000101 r
b101 1"
b0 ;
b0 J
b11000 #
b11000 )
b11000 ,
b11000 7
b11000 ^
b11000 b
b1 G
b10100 Z
b10100 #"
b10100 8"
b10000101000001010110011 3
b10000101000001010110011 [
b10000101000001010110011 !"
b11000 `
b11000 p
b11000 ,"
b11000 Y
b11000 d
b11000 ""
b11000 %"
b11000 7"
1$
#245
b101101101001100111000111000011 %
0$
#250
0g
b1011 X
b1011 c
b1011 $"
b1011 0"
b1011 4"
1k
0h
0.
b1011 _
b1011 n
b1011 o
b1011 ."
b1011 i
b111 j
b111 V
b111 l
b111 @"
b100 W
b100 m
b100 ;"
b10 ?
b10 H
b0 8
b0 A
b0 O
b0 ?"
b10 9
b10 @
b10 N
b10 :"
b111 F
b110 G
bx `
bx p
bx ,"
b10011100101000100001100011 ]
b10011100101000100001100011 +"
b10011100101000100001100011 -"
b100 a
b100 '"
b100 9"
1$
#255
b1011011110010011110011011010000 %
0$
#260
11
b0 0
b0 E
b0 R
b0 /"
b0 F
b111 G
b1011 `
b1011 p
b1011 ,"
1$
#265
b10110111000101101100100011110111 %
0$
#270
0k
b11100 X
b11100 c
b11100 $"
b11100 0"
b11100 4"
b100 j
b11100 _
b11100 n
b11100 o
b11100 ."
b100 V
b100 l
b100 @"
b11100 i
b11000 W
b11000 m
b11000 ;"
12
b1011 T
b1011 &"
b1011 6"
1D
b10 0
b10 E
b10 R
b10 /"
b0 ?
b0 H
b10 8
b10 A
b10 O
b10 ?"
b0 9
b0 @
b0 N
b0 :"
15
01
b1 F
b0 G
1$
#275
b1101110101010001001010010111001 %
0$
#280
b110000 j
b1001000 X
b1001000 c
b1001000 $"
b1001000 0"
b1001000 4"
b110000 V
b110000 l
b110000 @"
b1001000 _
b1001000 n
b1001000 o
b1001000 ."
b110000 \
b110000 }
b110000 ="
02
0s
1y
b100111 u
b1 t
b10000 |
b1 w
b1000 {
b10011 x
b11 S
b11 ("
b11 5"
b1001000 i
b11000 W
b11000 m
b11000 ;"
b11100011010001000010011 (
b11100011010001000010011 *
b11100011010001000010011 -
b11100011010001000010011 Q
b11100011010001000010011 ~
b11100011010001000010011 *"
b10 4
b10 C
b10 P
b10 q
b1 8
b1 A
b1 O
b1 ?"
b1 9
b1 @
b1 N
b1 :"
0D
05
b1010 F
b1001110010100010000 r
b10000 3"
b111 2"
b1100011 =
b11100 #
b11100 )
b11100 ,
b11100 7
b11100 ^
b11100 b
b1 G
b1011 a
b1011 '"
b1011 9"
b11000 Z
b11000 #"
b11000 8"
b10011100101000100001100011 3
b10011100101000100001100011 [
b10011100101000100001100011 !"
b11100 `
b11100 p
b11100 ,"
b11100 Y
b11100 d
b11100 ""
b11100 %"
b11100 7"
1$
#285
b11011001101101000011100110001100 %
0$
#290
1k
0h
b11111111111111111111111111111100 j
b11 V
b11 l
b11 @"
b1000 _
b1000 n
b1000 o
b1000 ."
b1000 i
b1011 W
b1011 m
b1011 ;"
b1 :
b1 >
b1 L
b1 M
b1 e
1B
b0 0
b0 E
b0 R
b0 /"
b1 ?
b1 H
b0 8
b0 A
b0 O
b0 ?"
b10 9
b10 @
b10 N
b10 :"
b0 F
b1010 G
b1001000 `
b1001000 p
b1001000 ,"
b11100011010001000010011 ]
b11100011010001000010011 +"
b11100011010001000010011 -"
b11 !
b11 '
b11 +
b11 /
b11 U
b11 )"
b11 <"
1$
#295
b10110111100011010110001111100110 %
0$
#300
0k
b100 j
b100000 _
b100000 n
b100000 o
b100000 ."
b100 V
b100 l
b100 @"
b100000 i
b11100 W
b11100 m
b11100 ;"
12
b0 :
b0 >
b0 L
b0 M
b0 e
b100000 X
b100000 c
b100000 $"
b100000 0"
b100000 4"
1D
b10 0
b10 E
b10 R
b10 /"
b0 ?
b0 H
b10 8
b10 A
b10 O
b10 ?"
b0 9
b0 @
b0 N
b0 :"
15
0B
b1 F
b0 G
b1000 `
b1000 p
b1000 ,"
1$
#305
b1101011111111111101011100110011 %
0$
#310
1k
b111 j
b100011 X
b100011 c
b100011 $"
b100011 0"
b100011 4"
b111 V
b111 l
b111 @"
b100011 _
b100011 n
b100011 o
b100011 ."
b111 \
b111 }
b111 ="
02
b100011 i
b11100 W
b11100 m
b11100 ;"
b100000010001100011 (
b100000010001100011 *
b100000010001100011 -
b100000010001100011 Q
b100000010001100011 ~
b100000010001100011 *"
b111 u
b0 t
b100 |
b0 w
b10 {
b11010 z
b11 x
b1100 T
b1100 &"
b1100 6"
0K
b0 4
b0 C
b0 P
b0 q
b1 8
b1 A
b1 O
b1 ?"
b1 9
b1 @
b1 N
b1 :"
0D
05
b1000 F
b100000 #
b100000 )
b100000 ,
b100000 7
b100000 ^
b100000 b
b1110001101000100 r
b100 3"
b11 1"
b10 ;
b10 J
b10011 =
b1 G
b100000 Y
b100000 d
b100000 ""
b100000 %"
b100000 7"
b100000 `
b100000 p
b100000 ,"
b11100011010001000010011 3
b11100011010001000010011 [
b11100011010001000010011 !"
b11100 Z
b11100 #"
b11100 8"
1$
#315
b11010111000111001110101000000000 %
0$
#320
b0 X
b0 c
b0 $"
b0 0"
b0 4"
b11111111111111111111111111111000 j
1.
b0 _
b0 n
b0 o
b0 ."
b101 i
b1100 W
b1100 m
b1100 ;"
b101 :
b101 >
b101 L
b101 M
b101 e
b10 ?
b10 H
b10 9
b10 @
b10 N
b10 :"
b111 F
b1000 G
b1100 a
b1100 '"
b1100 9"
b100000010001100011 ]
b100000010001100011 +"
b100000010001100011 -"
b100011 `
b100011 p
b100011 ,"
1$
#325
b10101110110110101001000001100110 %
0$
#330
11
b0 0
b0 E
b0 R
b0 /"
b0 F
b111 G
b0 `
b0 p
b0 ,"
1$
#335
b1011101010101100110010010101011 %
0$
#340
1f
0k
b100 j
b100100 X
b100100 c
b100100 $"
b100100 0"
b100100 4"
0.
b100100 _
b100100 n
b100100 o
b100100 ."
b100 V
b100 l
b100 @"
b100100 i
b100000 W
b100000 m
b100000 ;"
12
b0 :
b0 >
b0 L
b0 M
b0 e
1D
b10 0
b10 E
b10 R
b10 /"
b0 ?
b0 H
b10 8
b10 A
b10 O
b10 ?"
b0 9
b0 @
b0 N
b0 :"
15
01
b1 F
b0 G
1$
#345
b10111010010011111000110100110000 %
0$
#350
b1000 j
b101000 X
b101000 c
b101000 $"
b101000 0"
b101000 4"
b1000 V
b1000 l
b1000 @"
b101000 _
b101000 n
b101000 o
b101000 ."
b1000 \
b1000 }
b1000 ="
02
b101000 i
b100000 W
b100000 m
b100000 ;"
b1010010011 (
b1010010011 *
b1010010011 -
b1010010011 Q
b1010010011 ~
b1010010011 *"
0y
b0 u
b1000 |
b100 {
b100000 z
b0 x
b0 S
b0 ("
b0 5"
b0 T
b0 &"
b0 6"
1K
b10 4
b10 C
b10 P
b10 q
b1 8
b1 A
b1 O
b1 ?"
b1 9
b1 @
b1 N
b1 :"
0D
05
b1010 F
b100100 #
b100100 )
b100100 ,
b100100 7
b100100 ^
b100100 b
b10000001000 r
b1000 3"
b0 2"
b100 1"
b0 ;
b0 J
b1100011 =
b1 G
b100100 Y
b100100 d
b100100 ""
b100100 %"
b100100 7"
b100100 `
b100100 p
b100100 ,"
b100000010001100011 3
b100000010001100011 [
b100000010001100011 !"
b100000 Z
b100000 #"
b100000 8"
1$
#355
b1110100100110110001001011101110 %
0$
#360
12
1.
0h
b11111111111111111111111111111111 j
b0 V
b0 l
b0 @"
b0 _
b0 n
b0 o
b0 ."
b0 i
b0 W
b0 m
b0 ;"
b1 :
b1 >
b1 L
b1 M
b1 e
1B
b0 0
b0 E
b0 R
b0 /"
b1 ?
b1 H
b0 8
b0 A
b0 O
b0 ?"
b10 9
b10 @
b10 N
b10 :"
b0 F
b1010 G
b0 a
b0 '"
b0 9"
b0 !
b0 '
b0 +
b0 /
b0 U
b0 )"
b0 <"
b1010010011 ]
b1010010011 +"
b1010010011 -"
b101000 `
b101000 p
b101000 ,"
1$
#365
b11101001001100100010110101010011 %
0$
#370
b100 j
0.
b101100 _
b101100 n
b101100 o
b101100 ."
b100 V
b100 l
b100 @"
b101100 i
b101000 W
b101000 m
b101000 ;"
b0 :
b0 >
b0 L
b0 M
b0 e
b10100111010001000010011 (
b10100111010001000010011 *
b10100111010001000010011 -
b10100111010001000010011 Q
b10100111010001000010011 ~
b10100111010001000010011 *"
b101100 X
b101100 c
b101100 $"
b101100 0"
b101100 4"
1D
b10 0
b10 E
b10 R
b10 /"
b0 ?
b0 H
b10 8
b10 A
b10 O
b10 ?"
b0 9
b0 @
b0 N
b0 :"
15
0B
b1 F
b101000 #
b101000 )
b101000 ,
b101000 7
b101000 ^
b101000 b
b0 G
b101000 Y
b101000 d
b101000 ""
b101000 %"
b101000 7"
b0 `
b0 p
b0 ,"
1$
#375
b11010010011000000101001000110001 %
0$
