lab04/src/riscvmulticontroller.vcd
$date
	Tue May 17 09:58:38 2022
$end
$version
	Icarus Verilog
$end
$timescale
	1s
$end
$scope module testbench $end
$var wire 2 ! ResultSrc [1:0] $end
$var wire 1 " RegWrite $end
$var wire 1 # PCWrite $end
$var wire 1 $ MemWrite $end
$var wire 2 % ImmSrc [1:0] $end
$var wire 1 & IRWrite $end
$var wire 1 ' AdrSrc $end
$var wire 2 ( ALUSrcB [1:0] $end
$var wire 2 ) ALUSrcA [1:0] $end
$var wire 3 * ALUControl [2:0] $end
$var reg 1 + Zero $end
$var reg 1 , clk $end
$var reg 32 - errors [31:0] $end
$var reg 16 . expected [15:0] $end
$var reg 3 / funct3 [2:0] $end
$var reg 1 0 funct7b5 $end
$var reg 7 1 hash [6:0] $end
$var reg 1 2 new_error $end
$var reg 7 3 op [6:0] $end
$var reg 1 4 reset $end
$var reg 32 5 vectornum [31:0] $end
$scope module dut $end
$var wire 1 # PCWrite $end
$var wire 1 + Zero $end
$var wire 1 , clk $end
$var wire 3 6 funct3 [2:0] $end
$var wire 1 0 funct7b5 $end
$var wire 7 7 op [6:0] $end
$var wire 1 4 reset $end
$var wire 3 8 ALUControl [2:0] $end
$var reg 2 9 ALUOp [1:0] $end
$var reg 2 : ALUSrcA [1:0] $end
$var reg 2 ; ALUSrcB [1:0] $end
$var reg 1 ' AdrSrc $end
$var reg 1 < Branch $end
$var reg 1 & IRWrite $end
$var reg 2 = ImmSrc [1:0] $end
$var reg 1 $ MemWrite $end
$var reg 1 > PCUpdate $end
$var reg 1 " RegWrite $end
$var reg 2 ? ResultSrc [1:0] $end
$var reg 4 @ next_state [3:0] $end
$var reg 4 A state [3:0] $end
$scope module alud $end
$var wire 2 B ALUOp [1:0] $end
$var wire 1 C RtypeSub $end
$var wire 3 D funct3 [2:0] $end
$var wire 1 0 funct7b5 $end
$var wire 1 E opb5 $end
$var reg 3 F ALUControl [2:0] $end
$upscope $end
$upscope $end
$upscope $end
$enddefinitions $end
#0
$dumpvars
bx F
xE
bx D
xC
bx B
bx A
b0 @
bx ?
0>
bx =
0<
bx ;
bx :
bx 9
bx 8
bx 7
bx 6
b0 5
14
bx 3
x2
b0 1
x0
bx /
bx .
b0 -
1,
x+
bx *
bx )
bx (
0'
0&
bx %
0$
0#
0"
bx !
$end
#5
0,
#10
1,
#11
1E
b0 *
b0 8
b0 F
0C
b110011 3
b110011 7
b0 /
b0 6
b0 D
00
0+
bx00101000001100 .
#15
0,
#18
04
#20
1#
1>
b10 !
b10 ?
b0 9
b0 B
b10 (
b10 ;
b0 )
b0 :
1&
b1 @
b0 A
1,
#25
b1100 1
b1 5
02
0,
#30
0#
b1 (
b1 ;
b1 )
b1 :
0>
0&
b110 @
b1 A
1,
#31
bx0000 .
#35
b11000 1
b10 5
0,
#40
b10 9
b10 B
b0 (
b0 ;
b10 )
b10 :
b111 @
b110 A
1,
#41
bx1000xxx0000000 .
#45
b110100 1
b11 5
0,
#50
1"
b0 !
b0 ?
b0 @
b111 A
1,
#51
bx00xxxx0010 .
#55
b1101101 1
b100 5
0,
#60
1#
1>
b10 !
b10 ?
b0 9
b0 B
b10 (
b10 ;
b0 )
b0 :
1&
0"
b1 @
b0 A
1,
#61
1C
10
bx00101000001100 .
#65
b1010110 1
b101 5
0,
#70
0#
b1 (
b1 ;
b1 )
b1 :
0>
0&
b110 @
b1 A
1,
#71
bx0000 .
#75
b101101 1
b110 5
0,
#80
b1 *
b1 8
b1 F
b10 9
b10 B
b0 (
b0 ;
b10 )
b10 :
b111 @
b110 A
1,
#81
bx1000xxx0010000 .
#85
b1011101 1
b111 5
0,
#90
1"
b0 !
b0 ?
b0 @
b111 A
1,
#91
bx00xxxx0010 .
#95
b111111 1
b1000 5
0,
#100
1#
b0 *
b0 8
b0 F
1>
b10 !
b10 ?
b0 9
b0 B
b10 (
b10 ;
b0 )
b0 :
1&
0"
b1 @
b0 A
1,
#101
0C
b110 /
b110 6
b110 D
00
bx00101000001100 .
#105
b1110011 1
b1001 5
0,
#110
0#
b1 (
b1 ;
b1 )
b1 :
0>
0&
b110 @
b1 A
1,
#111
bx0000 .
#115
b1100110 1
b1010 5
0,
#120
b11 *
b11 8
b11 F
b10 9
b10 B
b0 (
b0 ;
b10 )
b10 :
b111 @
b110 A
1,
#121
bx1000xxx0110000 .
#125
b1001110 1
b1011 5
0,
#130
1"
b0 !
b0 ?
b0 @
b111 A
1,
#131
bx00xxxx0010 .
#135
b11001 1
b1100 5
0,
#140
1#
b0 *
b0 8
b0 F
1>
b10 !
b10 ?
b0 9
b0 B
b10 (
b10 ;
b0 )
b0 :
1&
0"
b1 @
b0 A
1,
#141
b111 /
b111 6
b111 D
bx00101000001100 .
#145
b111110 1
b1101 5
0,
#150
0#
b1 (
b1 ;
b1 )
b1 :
0>
0&
b110 @
b1 A
1,
#151
bx0000 .
#155
b1111101 1
b1110 5
0,
#160
b10 *
b10 8
b10 F
b10 9
b10 B
b0 (
b0 ;
b10 )
b10 :
b111 @
b110 A
1,
#161
bx1000xxx0100000 .
#165
b1111010 1
b1111 5
0,
#170
1"
b0 !
b0 ?
b0 @
b111 A
1,
#171
bx00xxxx0010 .
#175
b1110000 1
b10000 5
0,
#180
1#
b0 *
b0 8
b0 F
1>
b10 !
b10 ?
b0 9
b0 B
b10 (
b10 ;
b0 )
b0 :
1&
0"
b1 @
b0 A
1,
#181
b10 /
b10 6
b10 D
bx00101000001100 .
#185
b1101100 1
b10001 5
0,
#190
0#
b1 (
b1 ;
b1 )
b1 :
0>
0&
b110 @
b1 A
1,
#191
bx0000 .
#195
b1011000 1
b10010 5
0,
#200
b101 *
b101 8
b101 F
b10 9
b10 B
b0 (
b0 ;
b10 )
b10 :
b111 @
b110 A
1,
#201
bx1000xxx1010000 .
#205
b111111 1
b10011 5
0,
#210
1"
b0 !
b0 ?
b0 @
b111 A
1,
#211
bx00xxxx0010 .
#215
b1111011 1
b10100 5
0,
#220
1#
b0 *
b0 8
b0 F
1>
b10 !
b10 ?
b0 9
b0 B
b10 (
b10 ;
b0 )
b0 :
1&
0"
b1 @
b0 A
1,
#221
b0 %
b0 =
0E
b11 3
b11 7
bx00101000001100 .
#225
b1111010 1
b10101 5
0,
#230
0#
b1 (
b1 ;
b1 )
b1 :
0>
0&
b10 @
b1 A
1,
#231
bx0000 .
#235
b1110100 1
b10110 5
0,
#240
b10 )
b10 :
b11 @
b10 A
1,
#241
b1001xxx0000000 .
#245
b1100100 1
b10111 5
0,
#250
1'
b0 !
b0 ?
b100 @
b11 A
1,
#251
bx001xxx0000 .
#255
b1011000 1
b11000 5
0,
#260
1"
b1 !
b1 ?
0'
b0 @
b100 A
1,
#261
bx01xxxx0010 .
#265
b110111 1
b11001 5
0,
#270
1#
1>
b10 !
b10 ?
b10 (
b10 ;
b0 )
b0 :
1&
0"
b1 @
b0 A
1,
#271
b10011 3
b10011 7
b0 /
b0 6
b0 D
bx00101000001100 .
#275
b1100011 1
b11010 5
0,
#280
0#
b1 (
b1 ;
b1 )
b1 :
0>
0&
b1000 @
b1 A
1,
#281
bx0000 .
#285
b1000110 1
b11011 5
0,
#290
b10 9
b10 B
b10 )
b10 :
b111 @
b1000 A
1,
#291
b1001xxx0000000 .
#295
b1 1
b11100 5
0,
#300
1"
b0 !
b0 ?
b0 @
b111 A
1,
#301
bx00xxxx0010 .
#305
b110 1
b11101 5
0,
#310
1#
1>
b10 !
b10 ?
b0 9
b0 B
b10 (
b10 ;
b0 )
b0 :
1&
0"
b1 @
b0 A
1,
#311
10
bx00101000001100 .
#315
b0 1
b11110 5
0,
#320
0#
b1 (
b1 ;
b1 )
b1 :
0>
0&
b1000 @
b1 A
1,
#321
bx0000 .
#325
b11111 5
0,
#330
b10 9
b10 B
b10 )
b10 :
b111 @
b1000 A
1,
#331
b1001xxx0000000 .
#335
b1100 1
b100000 5
0,
#340
1"
b0 !
b0 ?
b0 @
b111 A
1,
#341
bx00xxxx0010 .
#345
b11100 1
b100001 5
0,
#350
1#
1>
b10 !
b10 ?
b0 9
b0 B
b10 (
b10 ;
b0 )
b0 :
1&
0"
b1 @
b0 A
1,
#351
b1 %
b1 =
1E
b100011 3
b100011 7
b10 /
b10 6
b10 D
00
bx00101000001100 .
#355
b110100 1
b100010 5
0,
#360
0#
b1 (
b1 ;
b1 )
b1 :
0>
0&
b10 @
b1 A
1,
#361
bx0000 .
#365
b1101001 1
b100011 5
0,
#370
b10 )
b10 :
b101 @
b10 A
1,
#371
b11001xxx0000000 .
#375
b1010110 1
b100100 5
0,
#380
1$
1'
b0 !
b0 ?
b0 @
b101 A
1,
#381
bx001xxx0001 .
#385
b111111 1
b100101 5
0,
#390
1#
1>
b10 !
b10 ?
b10 (
b10 ;
b0 )
b0 :
1&
0'
0$
b1 @
b0 A
1,
#391
b10 %
b10 =
b1100011 3
b1100011 7
b0 /
b0 6
b0 D
bx00101000001100 .
#395
b1110011 1
b100110 5
0,
#400
0#
b1 (
b1 ;
b1 )
b1 :
0>
0&
b1010 @
b1 A
1,
#401
b100101xxx0000000 .
#405
b1111100 1
b100111 5
0,
#410
b1 *
b1 8
b1 F
1<
b0 !
b0 ?
b1 9
b1 B
b0 (
b0 ;
b10 )
b10 :
b0 @
b1010 A
1,
#411
bx100000x0010000 .
#415
b1111110 1
b101000 5
0,
#420
1#
b0 *
b0 8
b0 F
1>
b10 !
b10 ?
b0 9
b0 B
b10 (
b10 ;
b0 )
b0 :
1&
0<
b1 @
b0 A
1,
#421
bx00101000001100 .
#425
b1110000 1
b101001 5
0,
#430
0#
b1 (
b1 ;
b1 )
b1 :
0>
0&
b1010 @
b1 A
1,
#431
b100101xxx0000000 .
#435
b1111010 1
b101010 5
0,
#440
b1 *
b1 8
b1 F
1<
b0 !
b0 ?
b1 9
b1 B
b0 (
b0 ;
b10 )
b10 :
b0 @
b1010 A
1,
#441
1#
1+
bx100000x0010100 .
#445
b1111010 1
b101011 5
0,
#450
b0 *
b0 8
b0 F
1>
b10 !
b10 ?
b0 9
b0 B
b10 (
b10 ;
b0 )
b0 :
1&
0<
b1 @
b0 A
1,
#451
b11 %
b11 =
b1101111 3
b1101111 7
0+
bx00101000001100 .
#455
b1111000 1
b101100 5
0,
#460
0#
b1 (
b1 ;
b1 )
b1 :
0>
0&
b1001 @
b1 A
1,
#461
b110101xxx0000000 .
#465
b1100010 1
b101101 5
0,
#470
1#
1>
b0 !
b0 ?
b10 (
b10 ;
b111 @
b1001 A
1,
#471
bx011000x0000100 .
#475
b1011110 1
b101110 5
0,
#480
0#
1"
0>
b0 @
b111 A
1,
#481
bx00xxxx0010 .
#485
b111001 1
b101111 5
0,
